%YAML 1.1
%TAG !u! tag:unity3d.com,2011:
--- !u!162 &1
EditorUserSettings:
  m_ObjectHideFlags: 0
  serializedVersion: 4
  m_ConfigSettings:
    RecentlyUsedScenePath-0:
      value: 224247031146467621432d25152d4b035932002b21382a353e664e17c0e13834add435ece93f2c736a26cd3d08324f2afc031d12
      flags: 0
    RecentlyUsedScenePath-1:
      value: 224247031146467621432d25152d4b035932002b21382a353e663f3cf7ee373df0a805eae2343a2f7620e0290a3d042dbc1f0702e212
      flags: 0
    RecentlyUsedScenePath-2:
      value: 224247031146467621432d25152d4b035932002b21382a353e663e21e3f7383df0a805eae2343a2f7621fd3d1332042dd613070afb02093f101cfa0b05b1051d18d101
      flags: 0
    RecentlyUsedScenePath-3:
      value: 224247031146467621432d25152d4b035932002b21382a353e662d26f1e81634ede43da6d4393a323c11a00c112d091dfe050a00b81e04020517
      flags: 0
    RecentlyUsedScenePath-4:
      value: 224247031146467621432d25152d4b035932002b21382a353e662936ecee3d2badd435ece93f2c730d07e1320d2d4f2afc031d12
      flags: 0
    RecentlyUsedScenePath-5:
      value: 2242470311464679040200230227103105041d3e3f670b3124275326ece92021
      flags: 0
    RecentlyUsedScenePath-6:
      value: 22424703114646680e0b0227036c72111f19563f22213229
      flags: 0
    vcSharedLogLevel:
      value: 0d5e400f0650
      flags: 0
  m_VCAutomaticAdd: 1
  m_VCDebugCom: 0
  m_VCDebugCmd: 0
  m_VCDebugOut: 0
  m_SemanticMergeMode: 2
  m_VCShowFailedCheckout: 1
  m_VCOverwriteFailedCheckoutAssets: 1
  m_VCProjectOverlayIcons: 1
  m_VCHierarchyOverlayIcons: 1
  m_VCOtherOverlayIcons: 1
  m_VCAllowAsyncUpdate: 1
